{
  "facebook-login": {
    "provider": "facebook",
    "module": "passport-facebook",
    "clientID": "1023459804392733",
    "clientSecret": "75d3d4950d2b51a59a93ebed69133c56",
    "callbackURL": "/auth/facebook/callback",
    "authPath": "/auth/facebook",
    "callbackPath": "/auth/facebook/callback",
    "successRedirect": "/",
    "failureRedirect": "/login",
    "scope": ["email"],
    "failureFlash": true
  },
  "facebook-link": {
    "provider": "facebook",
    "module": "passport-facebook",
    "clientID": "1023459804392733",
    "clientSecret": "75d3d4950d2b51a59a93ebed69133c56",
    "callbackURL": "/link/facebook/callback",
    "authPath": "/link/facebook",
    "callbackPath": "/link/facebook/callback",
    "successRedirect": "/auth/account",
    "failureRedirect": "/login",
    "scope": ["email", "user_likes"],
    "link": true,
    "failureFlash": true
  }
}
