{  
   "list":[
        {  

            "id":1,
            "img": "1.jpg",
            "user": "David Belle",
            "login": "login data",
            "text": "Cum sociis natoque penatibus et magnis dis parturient montes"
        },
        {
            "id":2,
            "img": "2.jpg",
            "user": "Jonathan Morris",
            "text": "Nunc quis diam diamurabitur at dolor elementum, dictum turpis vel"
        }
   ]
}
