{
  "_meta": {
    "sources": [
      "loopback/common/models",
      "loopback/server/models",
      "../common/models",
      "./models",
      "./node_modules/loopback-component-passport/lib/models"
    ],
    "mixins": [
      "../node_modules/loopback-ds-timestamp-mixin"
    ]
  },
  "user": {
    "dataSource": "mongoDs",
    "public": true
  },
  "accessToken": {
    "dataSource": "mongoDs",
    "public": true
  },
  "userCredential": {
    "dataSource": "mongoDs",
    "public": true
  },
  "userIdentity": {
    "dataSource": "mongoDs",
    "public": true
  },
  "ACL": {
    "dataSource": "mongoDs",
    "public": false
  },
  "RoleMapping": {
    "dataSource": "mongoDs",
    "public": false
  },
  "Role": {
    "dataSource": "mongoDs",
    "public": false
  },
  "Todo": {
    "dataSource": "mongoDs",
    "public": true
  },
  "Article": {
    "dataSource": "mongoDs",
    "public": true
  },
  "container": {
    "dataSource": "storage",
    "public": true
  }
}
